{
    "forge_marker": 1,
    "defaults": {
        "textures": {
            "all": "cosmerecraftmod:blocks/oreTin"
        }
    },
    "variants": {
        "normal": {
            "model": "cube_all"
        },
        "inventory": {
            "model": "cube_all"
        }
    }
}